{
  "usingComponents": {    
    "appbarsearch" : "/components/appbarsearch/appbarsearch",
    "categorylist" : "/components/categorylist/categorylist",
    "productcard" : "/components/productcard/productcard"
  }
}